﻿{
   "html_attributions" : [],
   "next_page_token" : "CoQC-AAAAGfI_1At_ia5XJkUNkvaDNeLpzfyc4cO4VWImitkUsTwgn_MIYH4FJqdnTsfyPPA2zIIEwcLJoM4svmzeXimMpwLpGNrdtcuSTRlEolgOOVfkxdavhvgDuctuojbQBWqauvDWCsvZsle1EkRN14fE26KcGb3QJ5fYXOgRz7TaNx1EPAC7ZdAMhf6VnyZfDq4had3YTjM25zxpaLB9popAcf4DB2_BO1hZLWKVaXN62dIUCUZFiQ6HEl_22Li-NrLd4b87n-Ad-lMmmnKAbC7NZfiixHyii66TE1Bj1n9-ut7BAMX13xi5gD9DQKvBR5uhhZnq0QLwAdxLrvuGQc0YTISEDe_zxA6JbxJDsFiiUo-ZEMaFD_RUTwbCdYGNHuHy6ZX2Sez_pgc",
   "results" : [
      {
         "geometry" : {
            "location" : {
               "lat" : 50.065624,
               "lng" : 19.945442
            },
            "viewport" : {
               "northeast" : {
                  "lat" : 50.0656357,
                  "lng" : 19.94562255
               },
               "southwest" : {
                  "lat" : 50.0656201,
                  "lng" : 19.94490035
               }
            }
         },
         "icon" : "https://maps.gstatic.com/mapfiles/place_api/icons/lodging-71.png",
         "id" : "d361d4e282ac5569d0f12a9a3c6b3b844e2cbbe4",
         "name" : "Andel's Vienna House",
         "opening_hours" : {
            "open_now" : true,
            "weekday_text" : []
         },
         "photos" : [
            {
               "height" : 3000,
               "html_attributions" : [
                  "\u003ca href=\"https://maps.google.com/maps/contrib/106033815554310116556/photos\"\u003eMaciej Janiec\u003c/a\u003e"
               ],
               "photo_reference" : "CoQBdwAAAGxRbbykqqnNHQXc47KaC-lSo8nRAdp977b7Oe3J0gq9PvhsUbGHohdL6_pkCxgUV-ILS0UiecBB9flIcrN6e9WQn4R7rU568Q1zn7LBNfrIdtzdQHtIshCk3kyWy9QocrdGdONfw_-P_s_KN4VWupYBzZrAxLXr22s54Ky3W9i7EhB-ScN8HsLiL9gazEbmV6ajGhTUOYIsJP7ekejturV8FJhAM-17FA",
               "width" : 4000
            }
         ],
         "place_id" : "ChIJ8Tb4__8PFkcRwHm1b4IG3Zc",
         "rating" : 4.5,
         "reference" : "CmRSAAAAsBHgo5KSSPTwNc59Vke1AF3E7_5P_OuSYomEEO8Sx9Dl0qSEigLo-WDiAI27fIn2ZsZ9GEi6rBDqr-rEKVivuu_CxwScmjMQo75Mbocgg3RLlPi0wq6v9m0qKRaBby3eEhDFkZm-y4ORtnjP7ST8mQGTGhTP-ma4U5C3MVk10aDdzvimbrqbfg",
         "scope" : "GOOGLE",
         "types" : [
            "bar",
            "lodging",
            "restaurant",
            "food",
            "point_of_interest",
            "establishment"
         ],
         "vicinity" : "Pawia 3, Kraków"
      },
      {
         "geometry" : {
            "location" : {
               "lat" : 50.054891,
               "lng" : 19.926015
            },
            "viewport" : {
               "northeast" : {
                  "lat" : 50.05498385,
                  "lng" : 19.92657285000001
               },
               "southwest" : {
                  "lat" : 50.05461244999999,
                  "lng" : 19.92582905
               }
            }
         },
         "icon" : "https://maps.gstatic.com/mapfiles/place_api/icons/lodging-71.png",
         "id" : "e7a15aa7eebef70168ead63e271fbc92fbf784fc",
         "name" : "Novotel Krakow Centrum",
         "photos" : [
            {
               "height" : 2160,
               "html_attributions" : [
                  "\u003ca href=\"https://maps.google.com/maps/contrib/116039205240311747560/photos\"\u003eRobert Bartoszcze\u003c/a\u003e"
               ],
               "photo_reference" : "CoQBdwAAAAGcBbiPq7p_YlkRprlRiqIufEfEcG5m9lfP1Mc6KDS3rbmScb-_zISAFWldn1M2iC5yAyowPvsfNvBmmy5X82abv0y3GlRfdIGNTh7vDHvOvD11UbacSU0uOg6L_DPnriOrDzh_H81MEtOp-zafQyTYWJcUPEjnt744X1xXTBsbEhBKhCBKIxgyK_En5BWhl0QCGhSlH-HqL5OMrqa6RrQdhxWUcSQY-g",
               "width" : 3840
            }
         ],
         "place_id" : "ChIJfaMUVAxbFkcRaJAu405D1Hk",
         "rating" : 4.3,
         "reference" : "CmRRAAAAUc8PlWcVvtAop4auif_UtTvJV4rjO4qsTgOpHFtvPVJFkMtFMfmghuCHbsbvzZYrS-Dka4gLlGGxHbdqk-Fe6H4Y9xsCMbEMEh_mI_k1kn_36SOWHaP7bcISehNNIKq2EhAF5Hu6oj_3qgkHW_urm528GhTrtJQOuL4aeEnFjdW-xcJhP3lZ8A",
         "scope" : "GOOGLE",
         "types" : [ "bar", "lodging", "health", "point_of_interest", "establishment" ],
         "vicinity" : "Tadeusza Kościuszki 5, Kraków"
      },
      {
         "geometry" : {
            "location" : {
               "lat" : 50.0619576,
               "lng" : 19.9423792
            },
            "viewport" : {
               "northeast" : {
                  "lat" : 50.0620199,
                  "lng" : 19.94274505
               },
               "southwest" : {
                  "lat" : 50.06190670000001,
                  "lng" : 19.94225725
               }
            }
         },
         "icon" : "https://maps.gstatic.com/mapfiles/place_api/icons/bar-71.png",
         "id" : "4119a1241b5e95d2c6d4a0e79d8d59375de88517",
         "name" : "House of Beer",
         "opening_hours" : {
            "open_now" : true,
            "weekday_text" : []
         },
         "photos" : [
            {
               "height" : 600,
               "html_attributions" : [
                  "\u003ca href=\"https://maps.google.com/maps/contrib/103870586115931162971/photos\"\u003eHouse of Beer\u003c/a\u003e"
               ],
               "photo_reference" : "CoQBdwAAACdqiu__nah2w2DwxRE84LTZ0dzpZUsMhA1q3A5DC6rQS-uPDpgXDHv8ompVPDlOSRe_mFJ4oXYnQ0wtEn8_SbieymoR2t0Ayl2ZeOKhMzR0UnthQYhNwLW2kXd4ia9pdSBOwt10Uz2qe8Dt-E1iY0_KEm6689TwV6ixkeI7LMswEhCaAIzYYTJfPjTliYB7-zIDGhQt4lYCMZ3i8nuvSggNhTzhVr7tnQ",
               "width" : 400
            }
         ],
         "place_id" : "ChIJ49sOdRFbFkcRJVWbAzNeGKk",
         "rating" : 4.6,
         "reference" : "CmRSAAAAuwwhmJcricZvIOoY-A4Lc2UwOTd_drwbyhfDKy8DlmMBOjlixzUifmNCWK6bC29inA08ddvAZrKWHFoPQFILHIpdb-0UD4hla0wsvj7S8ProGZL0t-LHhARQ-5tPzjS9EhB7Pp9uSD0XLc1swM-UtLBlGhQegkIcVup16H4x75MZKIalt2ZzOw",
         "scope" : "GOOGLE",
         "types" : [ "bar", "point_of_interest", "establishment" ],
         "vicinity" : "Świętego Tomasza 35, Kraków"
      },
      {
         "geometry" : {
            "location" : {
               "lat" : 50.0520091,
               "lng" : 19.9446932
            },
            "viewport" : {
               "northeast" : {
                  "lat" : 50.0520345,
                  "lng" : 19.94480345
               },
               "southwest" : {
                  "lat" : 50.0519329,
                  "lng" : 19.94465645
               }
            }
         },
         "icon" : "https://maps.gstatic.com/mapfiles/place_api/icons/generic_business-71.png",
         "id" : "27bbc655ebc4f49026f37b3d64c3eea98a84ec72",
         "name" : "Tajemniczy Ogród na Kazimierzu - klub",
         "opening_hours" : {
            "open_now" : true,
            "weekday_text" : []
         },
         "photos" : [
            {
               "height" : 2851,
               "html_attributions" : [
                  "\u003ca href=\"https://maps.google.com/maps/contrib/113307706309421709108/photos\"\u003eRené van Dijk\u003c/a\u003e"
               ],
               "photo_reference" : "CoQBdwAAADnpF8LbmFQKTYTJYokiz9oi8aLiQgGhcmaKB0sRASMtigbR4NKF7ym1es8bmjVzKtmU9658s11X59x8h8gUB_shzLv5Cz-QsyLlM7gYELETaLCgzZWEteGMP-JN_OOz1m_SAw0z1gSupsALT8k061-uxyuW6FBbAntNd6b8T3tXEhAKCwG6YWWHq5Wlsxo_fcObGhTFvyw3D95gyDwlXavoF7xPKT8eOw",
               "width" : 4132
            }
         ],
         "place_id" : "ChIJFwWIW2pbFkcR3IuB-QZ3Dmo",
         "rating" : 4.1,
         "reference" : "CmRRAAAAHM7xMzeWitw9MwJG7ksEoSyXhrC11BVFwIMa6BuqkMlTK5tZWIbN8vR-U4peOeOBHrCqIzi_GxzHIfi2ewOr0ol9Tcw046QSV2IOG8UgJ-ldtHlcO7wZhwbFwa4dmC_qEhC85eM-bRrqkKnOhzcGaSV_GhR-eMztghoRZwhdBoASp74ksqPuGw",
         "scope" : "GOOGLE",
         "types" : [
            "cafe",
            "bar",
            "restaurant",
            "food",
            "point_of_interest",
            "establishment"
         ],
         "vicinity" : "plac Nowy 9, Kraków"
      },
      {
         "geometry" : {
            "location" : {
               "lat" : 50.0748153,
               "lng" : 19.9377149
            },
            "viewport" : {
               "northeast" : {
                  "lat" : 50.07521735,
                  "lng" : 19.93858925
               },
               "southwest" : {
                  "lat" : 50.07360915,
                  "lng" : 19.93742345
               }
            }
         },
         "icon" : "https://maps.gstatic.com/mapfiles/place_api/icons/generic_business-71.png",
         "id" : "e502cc3e0d870431bf6d2d11813847baab25fa3f",
         "name" : "Forty Kleparz. Klub muzyczny",
         "photos" : [
            {
               "height" : 1836,
               "html_attributions" : [
                  "\u003ca href=\"https://maps.google.com/maps/contrib/101679395587134873529/photos\"\u003eMarcin Masti Mastalerz\u003c/a\u003e"
               ],
               "photo_reference" : "CoQBdwAAAI-eOoc-6Z-ocq9yZQzrA-XvtKNuCRlWEYGO92WiRGurYD2hQdSLxmFQ7eJlpHqAS8IYDS0DjQSdEdkRtT5Yp3sxofIT2clcaxx4Juz3_R1_-5kwqOzStOWLc2z3avpEc8b0YlLeZw1cUsFFKZkDnR1O1gHOOXYSen_xc0oR6Gq7EhCDPh7FLHjaabgMA4UtLTbsGhSjqNLSou6y9_4259-YiOkAKdj24Q",
               "width" : 3264
            }
         ],
         "place_id" : "ChIJIeEXDAFbFkcRhofqrbSjM88",
         "rating" : 4.2,
         "reference" : "CmRSAAAAmuanZ1RFwolD_jiiryMT7zK59ZLYROIK_jwFl94JYC_rNd9izVB_aqJIx8fVK0N0i7nxiFJ5OJZ2Q5pAagPG0lF9BCCW28oX1lYH19sBqv-m7u0HOR93t4uA3QXiQ0YxEhCg5Gds8xBp7PRadpsw2Fe9GhSduTTZMqEnCa5WWzjqKM_awxhOHg",
         "scope" : "GOOGLE",
         "types" : [ "cafe", "bar", "food", "point_of_interest", "establishment" ],
         "vicinity" : "Kamienna 2, Kraków"
      },
      {
         "geometry" : {
            "location" : {
               "lat" : 50.0633935,
               "lng" : 19.9327086
            },
            "viewport" : {
               "northeast" : {
                  "lat" : 50.0634694,
                  "lng" : 19.93279960000001
               },
               "southwest" : {
                  "lat" : 50.06316579999999,
                  "lng" : 19.9326356
               }
            }
         },
         "icon" : "https://maps.gstatic.com/mapfiles/place_api/icons/bar-71.png",
         "id" : "5c2801b6e4548410e4c8c89c0fbece6cb048ccd3",
         "name" : "C.K. Browar",
         "opening_hours" : {
            "open_now" : true,
            "weekday_text" : []
         },
         "photos" : [
            {
               "height" : 1171,
               "html_attributions" : [
                  "\u003ca href=\"https://maps.google.com/maps/contrib/116892942817196331362/photos\"\u003eC.K. Browar\u003c/a\u003e"
               ],
               "photo_reference" : "CoQBdwAAAH4HEvvhz-dONpzAL0lsesDpzKrJeyrQvyZ0yGdIjKBWY67EKsMrs7hlAUWIj_WoRSIViO72PcN05TVl0eV6eOCsf5maUjv0bBGPwuKMfNihGkWAi3ap4f8tp055aEy5H0JDD_a-EtZ2A3Thoa7WM1AerILWkzvcZOq-AqQto9GTEhBEsJmCr_plUlfs7-yxqSYMGhR_-7JyXn3aSSDIxGt-rZKRGkAu1Q",
               "width" : 1173
            }
         ],
         "place_id" : "ChIJf4Etug5bFkcRyq0rJ_UpcGk",
         "rating" : 4.1,
         "reference" : "CmRRAAAANy05KHArFUTzZM0bAQ-QIE5lths0H7Y9kgScKJsBDj3WpFh98xsqXw5A7s18np3P3dprcJZa-W8kB2rXA8qBnpkUyHyQCfl5SfN-SOBYCO-r5z1JKvkTTT-uTxBTsgWCEhBB4Kwqryo87xuUGyZlMc91GhQp2YnJIgJ1-2pz3Z1jf0DcNkHpdA",
         "scope" : "GOOGLE",
         "types" : [ "bar", "restaurant", "food", "point_of_interest", "establishment" ],
         "vicinity" : "Podwale 6, Kraków"
      },
      {
         "geometry" : {
            "location" : {
               "lat" : 50.051021,
               "lng" : 19.946525
            },
            "viewport" : {
               "northeast" : {
                  "lat" : 50.05107585,
                  "lng" : 19.9465715
               },
               "southwest" : {
                  "lat" : 50.05095644999999,
                  "lng" : 19.94638549999999
               }
            }
         },
         "icon" : "https://maps.gstatic.com/mapfiles/place_api/icons/restaurant-71.png",
         "id" : "3155a19646e83aedd806172a76b237fa33f5fc52",
         "name" : "Pub Wręga",
         "opening_hours" : {
            "open_now" : true,
            "weekday_text" : []
         },
         "photos" : [
            {
               "height" : 1364,
               "html_attributions" : [
                  "\u003ca href=\"https://maps.google.com/maps/contrib/104559768505770767715/photos\"\u003ePub Wręga\u003c/a\u003e"
               ],
               "photo_reference" : "CoQBdwAAABLmKqcYweYtDhIxI6BsFYTEpTHY7xQD6ufVtX2wy6TQ0b4mMFndeu6epMNPW4cRc6JajZUD32C06YuGlHDHvPxNQbRtUQDFPo-l622ZWxuWitewp70vM7GuJaWtByBZsuifYgh3SUDtGWggVydXY4D6iqfpT4k8Ia6rj18r0vPBEhBPoKpNm812oXgrvpLR8BQVGhR3S81EpqgXg2RGcxmT09zPu5rGug",
               "width" : 1367
            }
         ],
         "place_id" : "ChIJDXVa30FbFkcR01G4eVubqS8",
         "rating" : 3.9,
         "reference" : "CmRRAAAAVsRWdXDkaLJ3rx7UGZ_DV_AYUMjv-fsr24OMDURG6xwwmjCe3h-BEUep090b2jJh5oVa2aFzWhphMpxd-SnG_qIYzpxtyxBiN8o8hYKdGoV7BxQl6zRjQtxuXuIWaXTiEhBkqYtWEb1FLTdmH4-S__TeGhQJ5xZCzsS8a5Qm6LzFgK6IKJY9JA",
         "scope" : "GOOGLE",
         "types" : [
            "restaurant",
            "art_gallery",
            "bar",
            "food",
            "point_of_interest",
            "establishment"
         ],
         "vicinity" : "Józefa 17, Kraków"
      },
      {
         "geometry" : {
            "location" : {
               "lat" : 50.0514314,
               "lng" : 19.9456747
            },
            "viewport" : {
               "northeast" : {
                  "lat" : 50.05151555,
                  "lng" : 19.94574354999999
               },
               "southwest" : {
                  "lat" : 50.05140334999999,
                  "lng" : 19.94546815
               }
            }
         },
         "icon" : "https://maps.gstatic.com/mapfiles/place_api/icons/bar-71.png",
         "id" : "c42097fd2f00901d3ab73d966603e9233f9143c8",
         "name" : "Nova Resto Bar",
         "opening_hours" : {
            "open_now" : true,
            "weekday_text" : []
         },
         "photos" : [
            {
               "height" : 3088,
               "html_attributions" : [
                  "\u003ca href=\"https://maps.google.com/maps/contrib/104815611946270852887/photos\"\u003eTaras Stasyuk\u003c/a\u003e"
               ],
               "photo_reference" : "CoQBdwAAAHns3R8gDCafOnWRXMooPPcKslcyfJeM702RC7Lb08nww38hIE7JwDUr9OCKRAB4NO2Vo9OTInpPBOlEzmv47phxPvCHjo1Cz1fZo11AOC_TNKGU3lLWe4Rjis6KRjcLaUuEMHXIp63r39bUjT5-XUXUqyI34ILEnCl9lOTvIClwEhCkonn4WWEtoOT9lxJVJlVkGhRKi4pqwuI2zP8d7BjQqhvmGnGv_Q",
               "width" : 4160
            }
         ],
         "place_id" : "ChIJQZ55ZWpbFkcRmHWXbkevRXc",
         "rating" : 4.2,
         "reference" : "CmRRAAAAZFsdVR0hhOpYl9Rj0wc5retvqSWfMDoVMqm8KzPMCET2hBoM59YU_d132Vp0o30t2wRIa9CC92txu_I6lkjtAqiQLkxD_E6ll1mIfK8ppFNndxOtzxaD0X872JM3pj8jEhAnbKq-ILG6HvSmzKZP7_pfGhTMPQWVUEvc_Y6zkVYc40jdPK-nuQ",
         "scope" : "GOOGLE",
         "types" : [ "bar", "restaurant", "food", "point_of_interest", "establishment" ],
         "vicinity" : "Estery 18, Kraków"
      },
      {
         "geometry" : {
            "location" : {
               "lat" : 50.051894,
               "lng" : 19.94669
            },
            "viewport" : {
               "northeast" : {
                  "lat" : 50.05192595,
                  "lng" : 19.94685725
               },
               "southwest" : {
                  "lat" : 50.05188335,
                  "lng" : 19.94663425000001
               }
            }
         },
         "icon" : "https://maps.gstatic.com/mapfiles/place_api/icons/restaurant-71.png",
         "id" : "3286ac3f2d6db4a5161adfac3e2ae97a1cbe2c4d",
         "name" : "Opium Music Club",
         "opening_hours" : {
            "open_now" : true,
            "weekday_text" : []
         },
         "photos" : [
            {
               "height" : 1371,
               "html_attributions" : [
                  "\u003ca href=\"https://maps.google.com/maps/contrib/101466305777546378165/photos\"\u003eOpium Music Club\u003c/a\u003e"
               ],
               "photo_reference" : "CoQBdwAAANJuewCRMfQmegHlNaMO3Mqx1rTsVKaNiuJ-seq5k9CEivDMFBxL0yDUHM7KBLM0QJj_mFK3ZWdqDXlcXHZxQeXg7sFLWXI2hY5mdFEG6kwo1Gv95lqr-LElfYUO5qTVYHTUxD7WHHXmON514nP-k_95OU_x0Mt80G_v1nXyxcNmEhAHeC5TrYw16zlQQMN42ywIGhTeTm2Dz7WdDOP7N8nwabEuUWdjQA",
               "width" : 1373
            }
         ],
         "place_id" : "ChIJeacifmpbFkcR3SMYP8-8Lbw",
         "rating" : 4.2,
         "reference" : "CmRSAAAAlQVLfx2kQLElwyeQHpoOytpDrAclD08KUXD-kW2ZolgTgCRoQNEJxhDxqd5ch-CnUkUTH0bFJPj7LZOszfsR5s_2JAXAu1en-3Z6Tb-3A2bG6SNj3ar_6NrfweJHmbTgEhBA4ec7LQGpVEmwvOPwZK6FGhSthUDAEiykyKHTCt0iy-EQ_eh53A",
         "scope" : "GOOGLE",
         "types" : [ "bar", "restaurant", "food", "point_of_interest", "establishment" ],
         "vicinity" : "Jakuba 19, Kraków"
      },
      {
         "geometry" : {
            "location" : {
               "lat" : 50.05207360000001,
               "lng" : 19.9433493
            },
            "viewport" : {
               "northeast" : {
                  "lat" : 50.05227069999999,
                  "lng" : 19.9434249
               },
               "southwest" : {
                  "lat" : 50.05200790000001,
                  "lng" : 19.9431225
               }
            }
         },
         "icon" : "https://maps.gstatic.com/mapfiles/place_api/icons/restaurant-71.png",
         "id" : "f44347159d4116174965d149675c94c3f6af0b42",
         "name" : "Manzana",
         "opening_hours" : {
            "open_now" : true,
            "weekday_text" : []
         },
         "photos" : [
            {
               "height" : 5312,
               "html_attributions" : [
                  "\u003ca href=\"https://maps.google.com/maps/contrib/111943887627073102378/photos\"\u003eAnia Wdówka\u003c/a\u003e"
               ],
               "photo_reference" : "CoQBdwAAALccW2IZl9B-NCqe0WmXp9fajQ5iWSSr8C120B4Qi7HXGdkNHLUEtQ-vZJdsQiEM92ISYfhBn6pQnGHr7hATye9JzSI3EeNm98n-zTEcRn2xsIjYpP28WsWPLCdX8I4o8EqawegsCA4dNrLd15Ig0uVfOo0k_JmyrPagzOJ24oflEhCJ1550hrxLrtMYqKib0RQjGhQQiM3_ZPZOwnzRqcRcJwgAZ1W-2w",
               "width" : 2988
            }
         ],
         "place_id" : "ChIJ157YUmpbFkcRObmZiR4c7VE",
         "rating" : 4.5,
         "reference" : "CmRRAAAAZk7R13hZRIhBRmX2MQLZtoUchpopfPO5fH0e-9_3KHKvsCCc9ju1r4FQmXIUc3eqKu-YhhHy0ZGi6ZHHrQo8CQtjIpZypAncaVP5fdrJswcErc3GCRAh8UVA8BzGmMIgEhDJBsr9oHao1EGSMOge0_RJGhQSmH-Fv1nN-eJoDlKzRFKiVcBSbw",
         "scope" : "GOOGLE",
         "types" : [
            "restaurant",
            "cafe",
            "bar",
            "food",
            "point_of_interest",
            "establishment"
         ],
         "vicinity" : "Miodowa 11, Kraków"
      },
      {
         "geometry" : {
            "location" : {
               "lat" : 50.059823,
               "lng" : 19.93605
            },
            "viewport" : {
               "northeast" : {
                  "lat" : 50.0598238,
                  "lng" : 19.93630815
               },
               "southwest" : {
                  "lat" : 50.05982059999999,
                  "lng" : 19.93596395
               }
            }
         },
         "icon" : "https://maps.gstatic.com/mapfiles/place_api/icons/bar-71.png",
         "id" : "2d9fd4ac221fd51c17a5b7ff2c7ae0091bd90d4d",
         "name" : "Winoteka Winoman",
         "opening_hours" : {
            "open_now" : true,
            "weekday_text" : []
         },
         "photos" : [
            {
               "height" : 2835,
               "html_attributions" : [
                  "\u003ca href=\"https://maps.google.com/maps/contrib/108088286127405133837/photos\"\u003eWinoteka Winoman\u003c/a\u003e"
               ],
               "photo_reference" : "CoQBdwAAAIEYxd6UwlN-pP1789TyLs0PTlG913vvNovQHpWX3Sx8INRwyn2RvjhOS87HFUm5nz4Ky0PrE_Xg763Mn_IWy0jRaP8p-MkRpv42zKWNqtaKelDjNXGkm0bWhMszTQwi0QiJ9NmjXvnlm5iBP0BHZBGiRR3yLW_NK7f9_PrpMkGjEhBczImSnxP3Xsls2fhoB80AGhST4qX7u9s7_UoEerYa9C9jvUuM-A",
               "width" : 1890
            }
         ],
         "place_id" : "ChIJf8hYRQ5bFkcRCv2-aUk27iM",
         "reference" : "CmRRAAAA4Pdx1I0QrWi8lhON48IgBygdORnzlSv4DYEyoK7DVPNhY6xPIqVrhFDY1n7bRGjfXrxX9KLBIXLVBS_wddgLY2-DnrPVQi5oh4tz2cXcKNp8y5lUHLLGtpDlK04-JmvDEhBDg-lrUPPBRENCeDsrtBnYGhRsHO1_ctUxfMDF1VT5Xj_HfbkIug",
         "scope" : "GOOGLE",
         "types" : [ "bar", "restaurant", "food", "point_of_interest", "establishment" ],
         "vicinity" : "Bracka 15, Kraków"
      },
      {
         "geometry" : {
            "location" : {
               "lat" : 50.0504177,
               "lng" : 19.943316
            },
            "viewport" : {
               "northeast" : {
                  "lat" : 50.05046095,
                  "lng" : 19.94335845
               },
               "southwest" : {
                  "lat" : 50.05034275,
                  "lng" : 19.94329145
               }
            }
         },
         "icon" : "https://maps.gstatic.com/mapfiles/place_api/icons/bar-71.png",
         "id" : "b087a98eddff1632f5ad5fdbe79da86836f90efe",
         "name" : "Strefa Piwa Pub",
         "opening_hours" : {
            "open_now" : true,
            "weekday_text" : []
         },
         "photos" : [
            {
               "height" : 1371,
               "html_attributions" : [
                  "\u003ca href=\"https://maps.google.com/maps/contrib/109325914821771187222/photos\"\u003eTomek Toczek\u003c/a\u003e"
               ],
               "photo_reference" : "CoQBdwAAAHXjZHLORBH0LgcU34VK-q03Si-QiUwdVDivAto-zIvQy9J3N8iC3ayoWt0bTBjRzEQhFMsKlP4jLEbC8NCCVewUalwOGIpTFNjbfN0C_QBpabKKG-vAUN2-J0uSGOaVXL5rQd-pzcgVURurHA6odJP4FO_i-yfanDORuSkqQpSEEhCFPLH2eBj8WlhwQTfu29BAGhS_a-_BD2YQdNctni-YGpqJcDRafA",
               "width" : 2048
            }
         ],
         "place_id" : "ChIJ-QyMJGpbFkcR7gINGKIU_bs",
         "rating" : 4.7,
         "reference" : "CmRSAAAAKAcaRHOn2LtRs7HBpOUk0YOGiV6Oo93m8KIMl-60ec-ZODSA4YJNPE-BNexayDilpTrgJUtLgYJ6KUPY9wGfA-k2V-bbVKTzkxmmR5Qxy_dDx3R_tTOm8WFaKL5IWEglEhAVJtfgnrX0OrbGpZkI1baCGhR479CCR9kCSgH_-u_vp2gpufBKNg",
         "scope" : "GOOGLE",
         "types" : [ "bar", "point_of_interest", "establishment" ],
         "vicinity" : "Józefa 6, Kraków"
      },
      {
         "geometry" : {
            "location" : {
               "lat" : 50.06397289999999,
               "lng" : 19.9365505
            },
            "viewport" : {
               "northeast" : {
                  "lat" : 50.06401209999999,
                  "lng" : 19.9366424
               },
               "southwest" : {
                  "lat" : 50.0638553,
                  "lng" : 19.9362748
               }
            }
         },
         "icon" : "https://maps.gstatic.com/mapfiles/place_api/icons/bar-71.png",
         "id" : "f73e32a92de255b19eaa9d5acfb83c7bc828d91d",
         "name" : "Klub Społem",
         "opening_hours" : {
            "open_now" : true,
            "weekday_text" : []
         },
         "photos" : [
            {
               "height" : 900,
               "html_attributions" : [
                  "\u003ca href=\"https://maps.google.com/maps/contrib/114790907828125138472/photos\"\u003eKlub Społem\u003c/a\u003e"
               ],
               "photo_reference" : "CoQBdwAAADQ-JIv-u7PHGXzfpm-EfwEOUy4Mb-rKZFm0IpK_yGAKnBihJYs8cga5Rb3B59jQSyE87Fv6aS867Y9Uess3PQ9Gx3ySVn0PPC3TrwvKmRo_7wM447YXseJe4c9kjmrhmP7IXaxUVee3BtgZFZZTgeq6tOBZX4eleG2CnygzK5OpEhC2AiqBrrMJeBmTX5RW04FyGhTcCkl0P1k74Vzer7n59nuB5tk1kQ",
               "width" : 1200
            }
         ],
         "place_id" : "ChIJa4jeUA5bFkcRPBz6_zJlAXg",
         "rating" : 4.1,
         "reference" : "CmRRAAAAgoB2lCqPs5DVpXXU-6vWdVzbtUL7gd9q0qW125ssCus87HaG8Fh-uttNEAiOGb_SF27EQN-_YXAKmiUzKGZ3Jx1WkLlFx0dckjtMq300oaxzZXUPIxJCSRWkZfhkQ8BmEhAbY3Q63K6vZqNwps3qYeHYGhSqR1CHjXyMsm0L6jFOkKlL9UlxUQ",
         "scope" : "GOOGLE",
         "types" : [ "bar", "point_of_interest", "establishment" ],
         "vicinity" : "Świętego Tomasza 4, Kraków"
      },
      {
         "geometry" : {
            "location" : {
               "lat" : 50.061319,
               "lng" : 19.938812
            },
            "viewport" : {
               "northeast" : {
                  "lat" : 50.06149210000001,
                  "lng" : 19.93898915
               },
               "southwest" : {
                  "lat" : 50.0612613,
                  "lng" : 19.93875295
               }
            }
         },
         "icon" : "https://maps.gstatic.com/mapfiles/place_api/icons/restaurant-71.png",
         "id" : "8935a1171fdd2b8c694795ac90f40862f7676c58",
         "name" : "Hard Rock Cafe",
         "opening_hours" : {
            "open_now" : true,
            "weekday_text" : []
         },
         "photos" : [
            {
               "height" : 2988,
               "html_attributions" : [
                  "\u003ca href=\"https://maps.google.com/maps/contrib/117342197934315330619/photos\"\u003eBart Komorowski\u003c/a\u003e"
               ],
               "photo_reference" : "CoQBdwAAANWxppcRYQuMDm7kMCLuWF9fO6hD0p4T2BYOFKruhlZKgGSKQCoLd5t5686AwFUV67guD40Yg5-TcA_SPFeOPqewV9GY_IvJRa57Ro0p4kn9VwMWOXJGUZGFQ8G36Aj4UANTgoCvVbAFXx4621U-2hpSwE9muCvznLDLV-NKqzgzEhCWzWkhRMK3-U8znZFa_3shGhTdbMCfWAVV3Z6Ucbk3r4QWznL4Mw",
               "width" : 5312
            }
         ],
         "place_id" : "ChIJ7YL49xFbFkcRMUQg9S3QKcM",
         "rating" : 4.3,
         "reference" : "CmRSAAAAz2T9DjzwPqn9Fqp_tmcAEo78qwJVhQMM187ChzDukab-j06zK4zX_2qNzRwZye3EojgSLSi8bstg2DtOL2lg77kfTlmEZgSLHHVOj0U76Pip4bWnB0id7mvYbeqARJEjEhDJGDsNOl0MWVQZTxJlH9vCGhT8uyNvel4hEJWv_OZCZpxafJpR8A",
         "scope" : "GOOGLE",
         "types" : [
            "restaurant",
            "cafe",
            "bar",
            "food",
            "point_of_interest",
            "establishment"
         ],
         "vicinity" : "plac Mariacki 9, Kraków"
      },
      {
         "geometry" : {
            "location" : {
               "lat" : 50.0635919,
               "lng" : 19.9347236
            },
            "viewport" : {
               "northeast" : {
                  "lat" : 50.0636592,
                  "lng" : 19.93521725
               },
               "southwest" : {
                  "lat" : 50.06339,
                  "lng" : 19.93455905
               }
            }
         },
         "icon" : "https://maps.gstatic.com/mapfiles/place_api/icons/bar-71.png",
         "id" : "72c7767a5833f157eb332ee16de460e5296a0ba7",
         "name" : "Bomba. Klub",
         "opening_hours" : {
            "open_now" : true,
            "weekday_text" : []
         },
         "photos" : [
            {
               "height" : 3120,
               "html_attributions" : [
                  "\u003ca href=\"https://maps.google.com/maps/contrib/107863526412183375076/photos\"\u003eJacek Pulit\u003c/a\u003e"
               ],
               "photo_reference" : "CoQBdwAAAD2BMGMyk6Wjor1l-o5DMIfSMo9g29Xe5xXy-FyaWUghFQM058j3WStUCxIUQZt62yfwZ-DQ2Lf2Y1vZvmPQu4okZtP4c7sVm5ghJiKqVVxyM_nkWwLpCAitFbrIUlcq5RM8ca9CZiq8uoqqrIrDt7KzvLQ4sHN-P4as_iMcetGgEhA56snOalG_o7ukW92BZEiwGhSSfkwRB1FK21zwT_qVC0OSVaGtiA",
               "width" : 4160
            }
         ],
         "place_id" : "ChIJdZ3Y9A5bFkcRahcblcpK0B4",
         "rating" : 4.3,
         "reference" : "CmRRAAAABXkgn7jRgIjL4A9_uFmfPboSGUclmvZHKEf8yxy-c1oibWbYvPT7o2D25qxBYmy7PzKl1wRUfOTIeTvI9Vm8P4XFwo3Xdb6dm2NfkM6VJ-rxScqn_Cvm26G4X91cOb08EhBlfEpb0hipQToo1eTGuGbqGhSsa0NP6ADsL6BvZMGJSQh1I0FkgQ",
         "scope" : "GOOGLE",
         "types" : [ "bar", "point_of_interest", "establishment" ],
         "vicinity" : "plac Szczepański 2, Kraków"
      },
      {
         "geometry" : {
            "location" : {
               "lat" : 50.07527369999999,
               "lng" : 19.9409071
            },
            "viewport" : {
               "northeast" : {
                  "lat" : 50.07545010000001,
                  "lng" : 19.9412415
               },
               "southwest" : {
                  "lat" : 50.07521489999999,
                  "lng" : 19.9399039
               }
            }
         },
         "icon" : "https://maps.gstatic.com/mapfiles/place_api/icons/bar-71.png",
         "id" : "97ba7c040497be1f6d82fe0cdaf1dc97a8e015a7",
         "name" : "PROMINENT The Original Lounge Bar",
         "opening_hours" : {
            "open_now" : true,
            "weekday_text" : []
         },
         "photos" : [
            {
               "height" : 2322,
               "html_attributions" : [
                  "\u003ca href=\"https://maps.google.com/maps/contrib/101131521247315299501/photos\"\u003eMiroslaw Gugula\u003c/a\u003e"
               ],
               "photo_reference" : "CoQBdwAAAGjUph1iJw056-cQ7nj9rG7ceSclQ7WvNtbKUjx8X0ntvyzcGzOV9jl2x-mqDAsZu6OgqqG3YT-7iCF95VKExgCMg3ScL2oocg9k4IgplO_tsEdHsquVI8NOmEdIiM1ShA2tDdulXc0zLut80kj5412-Mip9kxQEK0Q3_P0BsIaGEhAw5MKvJfiijax60SLZ3FWgGhS9IiBp0tjfkBbo6QovDZfvrhVDpw",
               "width" : 4128
            }
         ],
         "place_id" : "ChIJn7kHJwJbFkcRJINcVOHZymY",
         "rating" : 4.3,
         "reference" : "CmRRAAAAXNQnhuJ4fznv7KeN50fCIS-LVLO4d0NlWvfV2kFrXNfU2uXcTTmhuwew0V6uNKf4X67tLi74fvi7ihtBYhzsSzg0WkxDCkC3lzMVGFUeiRLZb1r9OI5GK1-9fMzUmOt-EhCDg40mGaMiXgBtBY9_sHSHGhRwj8w6Ec8ss40M--iZzjm_UfiNJQ",
         "scope" : "GOOGLE",
         "types" : [ "night_club", "bar", "food", "point_of_interest", "establishment" ],
         "vicinity" : "Hala sportowo-widowiskowa Politechniki Krakowskiej, Kamienna 17, Kraków"
      },
      {
         "geometry" : {
            "location" : {
               "lat" : 50.064024,
               "lng" : 19.9363678
            },
            "viewport" : {
               "northeast" : {
                  "lat" : 50.06407035,
                  "lng" : 19.93651035
               },
               "southwest" : {
                  "lat" : 50.06395695,
                  "lng" : 19.93594015
               }
            }
         },
         "icon" : "https://maps.gstatic.com/mapfiles/place_api/icons/generic_business-71.png",
         "id" : "5c868884cf12081d72ac1e4ea3918d974476f8f6",
         "name" : "The Square Club",
         "opening_hours" : {
            "open_now" : true,
            "weekday_text" : []
         },
         "photos" : [
            {
               "height" : 1000,
               "html_attributions" : [
                  "\u003ca href=\"https://maps.google.com/maps/contrib/104579000995168407555/photos\"\u003eThe Square Club\u003c/a\u003e"
               ],
               "photo_reference" : "CoQBdwAAANvb32xo9DEHGsK-R2_i0JpfCKR7-MA35UOtpx59Z93F7LUiERnfF5u1qfiw9f4uIoEaKNs6FaHkV0QNy7-FEDsLxmuZ3be1R-NKWG_vuF1jXguvX35-OwLy4VJdiFbi7grawZJ832mT93eyMyoa4axeL5U7wjStFX2bxxxfa_GaEhAdL0k2T2f1TIMq4uW8_YsJGhQ1mVwGbSGLeEJNgzqZZw4cgAWTqg",
               "width" : 1000
            }
         ],
         "place_id" : "ChIJYZ3jVg5bFkcR8kH3PieQOno",
         "rating" : 4.1,
         "reference" : "CmRRAAAABGi4MsHO-yaspNHGU19E77_fYFZW8tvtkW60BGZcQGqL8PThECRkb2_x_H02-8u7r-zk-0kmVcl9YXil3YtIp5EhiYxfUTnxucwk_GpjN8Pl6SSGVF8uXzTn1AMv-7LoEhCDCGNOZzvUZR7Q-8s4I_t2GhRDwhRTRyw17QWwcg7Q-1Gy1lxWgg",
         "scope" : "GOOGLE",
         "types" : [ "night_club", "bar", "point_of_interest", "establishment" ],
         "vicinity" : "plac Szczepański 7, Kraków"
      },
      {
         "geometry" : {
            "location" : {
               "lat" : 50.0559208,
               "lng" : 19.9283589
            },
            "viewport" : {
               "northeast" : {
                  "lat" : 50.05609345000001,
                  "lng" : 19.92866369999999
               },
               "southwest" : {
                  "lat" : 50.05586325,
                  "lng" : 19.92825730000001
               }
            }
         },
         "icon" : "https://maps.gstatic.com/mapfiles/place_api/icons/restaurant-71.png",
         "id" : "1189c114ba6fb3e8911d60472221ee2674eaf022",
         "name" : "Restauracja Percheron",
         "opening_hours" : {
            "open_now" : false,
            "weekday_text" : []
         },
         "photos" : [
            {
               "height" : 2988,
               "html_attributions" : [
                  "\u003ca href=\"https://maps.google.com/maps/contrib/102943169110385405338/photos\"\u003ekazimierz piekarz\u003c/a\u003e"
               ],
               "photo_reference" : "CoQBdwAAAHwfO7LQVXEHZx08S5rdzLTO5z-WBmvBmGumggUzgPBLdvNw3MdqGOMTfn1d1-JwHEDt1XHmygGC9o6F2a82BSbqd-SSGnssBd0YEeMJHagrEoDAH6q1UZZQznxUjJRlrJUmZQPIxytV2-jvMExShEjwOaVN6au9jWOFdkW86-uREhCfO_MOm2pGELzU1ftQCslrGhTPNMHLVfQ8mSIrTvhgW6qmqIGXMQ",
               "width" : 5312
            }
         ],
         "place_id" : "ChIJkaRcEnNbFkcRDcY26k2iZGc",
         "rating" : 4.3,
         "reference" : "CmRRAAAA2BNcg9_Z9YXtJzG6HviWWhL_-NmcpvMnWk2oQ6KttKaf1mOz-4FXS4Hr9phsRID5txEyfhxkoDXLjSKnXejx1eLEcV3K1HXoDfoiC6UIkb0NPoUIsvQ21QvL0pjBPnHvEhBfKz9HlDYXRGZfgniPxMXtGhTVTtLjO_vjfKfRtljSjDVqlEJzYw",
         "scope" : "GOOGLE",
         "types" : [
            "restaurant",
            "cafe",
            "bar",
            "food",
            "point_of_interest",
            "establishment"
         ],
         "vicinity" : "plac Kossaka 1, Kraków"
      },
      {
         "geometry" : {
            "location" : {
               "lat" : 50.0590224,
               "lng" : 19.9392257
            },
            "viewport" : {
               "northeast" : {
                  "lat" : 50.05910305,
                  "lng" : 19.9392352
               },
               "southwest" : {
                  "lat" : 50.05897765,
                  "lng" : 19.9392204
               }
            }
         },
         "icon" : "https://maps.gstatic.com/mapfiles/place_api/icons/bar-71.png",
         "id" : "3ec575cdbab153a664ba318f1327822f08501fdd",
         "name" : "BeerGallery - Dominikańska",
         "opening_hours" : {
            "open_now" : true,
            "weekday_text" : []
         },
         "photos" : [
            {
               "height" : 1536,
               "html_attributions" : [
                  "\u003ca href=\"https://maps.google.com/maps/contrib/104197083315861649505/photos\"\u003eBeerGallery - Dominikańska\u003c/a\u003e"
               ],
               "photo_reference" : "CoQBdwAAAGeg_i3kqez9D--byJ_Ek6avvnZ3RwZujE_7GDQ54_ZgsvBXLRGZwk5Kix9FtCiAPI29_AauJ6oKzhcUAlA45RJk9X7GjUj7YgIFBPvRgFp3TKrcXpx2Bsepu3KqZ4FLsxMFt4-aovEMhSDwT6MozuTcbNcmUJaX25t3mR4ISLiaEhCJBqj2ZefMgXImHxVFrDJrGhSx4VzFRtWhJzA4AdEryWOTRPanCw",
               "width" : 2048
            }
         ],
         "place_id" : "ChIJA6PXjWpbFkcRUTuxTnRoR7I",
         "rating" : 4,
         "reference" : "CmRSAAAA8WhRNkulSlOzwfsbST-OoaxPsD63ATz6f0xF3r6JDbXZa0nq6KaSCbvhEHkEqOyuLjxVWQdjnxDmrDyh7VWsbVys2xzOIBenuVcq3A7KuYllJzv3D62h4m7IxjvSn9zGEhCn4ep3NkqYXVCz7wq8ZW2cGhQC4dLZdp2jl91rP0fu8-UnHyN8zA",
         "scope" : "GOOGLE",
         "types" : [ "bar", "food", "point_of_interest", "establishment" ],
         "vicinity" : "Dominikańska 3, Kraków"
      },
      {
         "geometry" : {
            "location" : {
               "lat" : 50.05323549999999,
               "lng" : 19.9469176
            },
            "viewport" : {
               "northeast" : {
                  "lat" : 50.05332179999999,
                  "lng" : 19.94693574999999
               },
               "southwest" : {
                  "lat" : 50.0532034,
                  "lng" : 19.94686875
               }
            }
         },
         "icon" : "https://maps.gstatic.com/mapfiles/place_api/icons/restaurant-71.png",
         "id" : "28545bd762479009e11c9c82ffb51f17741385e4",
         "name" : "Restauracja \"TREZO\"",
         "opening_hours" : {
            "open_now" : true,
            "weekday_text" : []
         },
         "photos" : [
            {
               "height" : 3840,
               "html_attributions" : [
                  "\u003ca href=\"https://maps.google.com/maps/contrib/106113483814943241000/photos\"\u003eFredrik Bergkvist\u003c/a\u003e"
               ],
               "photo_reference" : "CoQBdwAAAEUfyU6J8HRuScs7sOllJYGy_5Hl2tdM5otZwGZLFNzzb706RBJMcmavM3R4XXGRy_XiVg49SHtgkTTIYRLPz8SXOXsigi9AeTtsffIDon6qeuTEmv9avFLxhB9wGXipV94PFuY1yxIPYFpZTL4hqs6spLnujuaEgahs8MPPdH6dEhBYoWmpJg8vNUKM6VWPMpsKGhTZxky0wfTOdaAd_IN28QaM6qaxdA",
               "width" : 2160
            }
         ],
         "place_id" : "ChIJ3yzrl2pbFkcRn546lkZ_9FM",
         "rating" : 4.3,
         "reference" : "CmRRAAAAqp3Z9t8YLtbMGlvSRixuF8prP4jUssqXseS4VSQuuGBg4Q6DvOxXHoeX_wosEijHNMv74IuqrQH9fJyv1kD69XPuCTy-a1Em4Z3u2UxPG4xaono8x4WdEqIvvoTzAFcuEhAR5txyinJEoHY3Tz5YD6SuGhRq1WRUSTzT0mb2myBTZa6E3qy79g",
         "scope" : "GOOGLE",
         "types" : [
            "restaurant",
            "cafe",
            "bar",
            "food",
            "point_of_interest",
            "establishment"
         ],
         "vicinity" : "Miodowa 33, Kraków"
      }
   ],
   "status" : "OK"
}
